<svg width="8" height="7" viewBox="0 0 8 7" fill="none" xmlns="http://www.w3.org/2000/svg">
<path d="M4.41094 6.40709C4.21209 6.69399 3.78791 6.69399 3.58906 6.40709L0.213833 1.53732C-0.0159941 1.20573 0.221324 0.7525 0.624776 0.7525L7.37522 0.7525C7.77868 0.7525 8.01599 1.20573 7.78617 1.53732L4.41094 6.40709Z" fill="#293845"/>
</svg>
