<svg width="6" height="10" viewBox="0 0 6 10" fill="none" xmlns="http://www.w3.org/2000/svg">
<path d="M6 1.175L2.2915 5L6 8.825L4.8583 10L-5.1656e-07 5L4.8583 8.53864e-07L6 1.175Z" fill="#FBA409"/>
</svg>
