<?xml version="1.0" standalone="no"?>
<!DOCTYPE svg PUBLIC "-//W3C//DTD SVG 1.1//EN" "http://www.w3.org/Graphics/SVG/1.1/DTD/svg11.dtd" >
<svg xmlns="http://www.w3.org/2000/svg">
<metadata>Generated by IcoMoon</metadata>
<defs>
<font id="icomoon" horiz-adv-x="1024">
<font-face units-per-em="1024" ascent="960" descent="-64" />
<missing-glyph horiz-adv-x="1024" />
<glyph unicode="&#x20;" horiz-adv-x="512" d="" />
<glyph unicode="&#xe900;" glyph-name="cartao" horiz-adv-x="1280" d="M106.667-64c-58.842 0.169-106.497 47.825-106.667 106.651v810.683c0.169 58.842 47.825 106.497 106.651 106.667h1066.683c58.842-0.169 106.497-47.825 106.667-106.651v-810.683c-0.169-58.842-47.825-106.497-106.651-106.667h-0.016z" />
<glyph unicode="&#xe901;" glyph-name="entrega-expresso" horiz-adv-x="1741" d="M716.8 448c0.025 282.727 229.226 511.913 511.956 511.913 282.746 0 511.956-229.211 511.956-511.956 0-282.731-229.186-511.932-511.911-511.956h-0.002c-282.422 0.863-511.137 229.578-512 511.917v0.083zM255.978 38.444c-28.277 0-51.2 22.923-51.2 51.2s22.923 51.2 51.2 51.2v0h255.978c28.277 0 51.2-22.923 51.2-51.2s-22.923-51.2-51.2-51.2v0zM153.622 396.822c-28.277 0-51.2 22.923-51.2 51.2s22.923 51.2 51.2 51.2v0h358.378c28.277 0 51.2-22.923 51.2-51.2s-22.923-51.2-51.2-51.2v0zM51.178 755.2c-27.639 0.831-49.729 23.436-49.729 51.2s22.089 50.369 49.652 51.198l0.076 0.002h460.822c27.639-0.831 49.729-23.436 49.729-51.2s-22.089-50.369-49.652-51.198l-0.076-0.002z" />
<glyph unicode="&#xe902;" glyph-name="sacola" d="M36.778-64c-10.771 0.121-20.45 4.697-27.301 11.967l-0.018 0.019c-5.856 6.594-9.432 15.325-9.432 24.893 0 1.287 0.065 2.559 0.191 3.813l-0.013-0.158 20.011 178.868h984.013l19.977-178.868c0.124-1.147 0.195-2.478 0.195-3.825 0-9.504-3.529-18.183-9.349-24.799l0.036 0.042c-6.872-7.283-16.549-11.856-27.295-11.986h-0.024zM24.211 192.111l49.139 442.731c2.285 18.384 17.768 32.485 36.563 32.577h146.198v-73.145c0-40.397 32.748-73.145 73.145-73.145s73.145 32.748 73.145 73.145v73.145h219.436v-73.145c-0.011-0.47-0.017-1.025-0.017-1.58 0-40.397 32.748-73.145 73.145-73.145s73.145 32.748 73.145 73.145c0 0.556-0.006 1.11-0.019 1.663l0.001-0.082v73.145h146.393c18.805-0.093 34.288-14.193 36.554-32.397l0.018-0.181 49.173-442.833zM658.513 594.274v146.291c0 80.794-65.497 146.291-146.291 146.291s-146.291-65.497-146.291-146.291v0-146.291c0-20.199-16.374-36.573-36.573-36.573s-36.573 16.374-36.573 36.573v0 146.291c0 121.191 98.245 219.436 219.436 219.436s219.436-98.245 219.436-219.436v-146.291c0-20.199-16.374-36.573-36.573-36.573s-36.573 16.374-36.573 36.573v0z" />
</font></defs></svg>